digraph {

subgraph cluster_opa{          // perrepo
    label="Open Policy Agent"; // perrepo
    color=grey;                // perrepo

    opa [color=goldenrod, style=filled, label="Open Policy Agent"]
}   // perrepo

    opa -> apiserver [label="is configured via configmaps"]
    apiserver -> opa [label="uses admission webhook endpoint"]
}
